{
  "X-Service-Name": "CeadDocumentService",
  "X-Service-Version": "0.1.0",
  "port": 3007,
  "mongoose": {
    "options": {
      "useNewUrlParser": true
    },
    "uri": "mongodb://localhost/cead-document-service"
  },
  "document": {
    "clearInterval": "0 * * * *",
    "cacheTime": 3600
  },
  "tradeMark": {
    "clearInterval": "0 * * * *",
    "cacheTime": 3600
  }
}